{
  "project_info": {
    "project_number": "415433213582",
    "project_id": "smartgarden2016-1290"
  },
  "client": [
    {
      "client_info": {
        "mobilesdk_app_id": "1:415433213582:android:4f002db05d89a023",
        "android_client_info": {
          "package_name": "org.escoladeltreball.smartgarden"
        }
      },
      "oauth_client": [],
      "api_key": [
        {
          "current_key": "AIzaSyDoazn_gVapZgYhFNRcIhAx_Tzrq-mtJ1Y"
        }
      ],
      "services": {
        "analytics_service": {
          "status": 1
        },
        "appinvite_service": {
          "status": 1,
          "other_platform_oauth_client": []
        },
        "ads_service": {
          "status": 1
        }
      }
    }
  ],
  "configuration_version": "1"
}