ref,subject,description,user_story,sprint,sprint_estimated_start,sprint_estimated_finish,owner,owner_full_name,assigned_to,assigned_to_full_name,status,is_iocaine,is_closed,us_order,taskboard_order,attachments,external_reference,tags,watchers,voters
9,Analisis funcional i no funcional de la aplicación,En formato PDF.,1,Documentación del proyecto,2016-04-11,2016-05-20,iam47591775,Andres Jordan Zambrano,,,Closed,False,True,1,12,0,,,[],0
10,Diagrama UML estatico de las clases conceptuales del dominio,En formato PNG.,1,Documentación del proyecto,2016-04-11,2016-05-20,iam47591775,Andres Jordan Zambrano,,,Closed,False,True,1,13,0,,,[],0
11,Diagrama UML estatico de las clases conceptuales del diseño,En formato PNG.,1,Documentación del proyecto,2016-04-11,2016-05-20,iam47591775,Andres Jordan Zambrano,,,Closed,False,True,1,10,0,,,[],0
12,Diagrama de los casos de uso de la aplicación,En formato PNG.,1,Documentación del proyecto,2016-04-11,2016-05-20,iam47591775,Andres Jordan Zambrano,iam47591775,Andres Jordan Zambrano,Closed,False,True,1,0,0,,,[],0
13,Diagrama entidad/relación si se hace persistencia de datos con un RDBMS,En formato PNG.,1,Documentación del proyecto,2016-04-11,2016-05-20,iam47591775,Andres Jordan Zambrano,,,Closed,False,True,1,14,0,,,[],0
14,Reporte sobre el codigo fuente de la aplicación generado con CodeAnalyzer,En formato HTML.,1,Documentación del proyecto,2016-04-11,2016-05-20,iam47591775,Andres Jordan Zambrano,,,Closed,False,True,1,1,0,,,[],0
15,Reporte de los bugs de la aplicación analizada con FindBugs,En formato PDF.,1,Documentación del proyecto,2016-04-11,2016-05-20,iam47591775,Andres Jordan Zambrano,,,Closed,False,True,1,6,0,,,[],0
16,Codigo fuente de la aplicación y de sus tests,,1,Documentación del proyecto,2016-04-11,2016-05-20,iam47591775,Andres Jordan Zambrano,,,Closed,False,True,1,5,0,,,[],0
17,URL de la aplicación en gitlab,,1,Documentación del proyecto,2016-04-11,2016-05-20,iam47591775,Andres Jordan Zambrano,,,Closed,False,True,1,4,0,,,[],0
18,URL del video,En formato libre (ogv/webm ...) en archive.org,1,Documentación del proyecto,2016-04-11,2016-05-20,iam47591775,Andres Jordan Zambrano,,,Closed,False,True,1,3,0,,,[],0
19,Aplicación en un formato que permita su distribución,.jar o .apk,1,Documentación del proyecto,2016-04-11,2016-05-20,iam47591775,Andres Jordan Zambrano,,,Closed,False,True,1,2,0,,,[],0
20,"Recursos: imágenes, sonidos, animaciones, etc",Licencias libres.,1,Documentación del proyecto,2016-04-11,2016-05-20,iam47591775,Andres Jordan Zambrano,,,Closed,False,True,1,9,0,,,[],0
21,Librerias adicionales,,1,Documentación del proyecto,2016-04-11,2016-05-20,iam47591775,Andres Jordan Zambrano,,,Closed,False,True,1,8,0,,,[],0
22,Presentación (diapositivas) que se usen en la presentación del proyecto,"En format ODP, PDF o HTML/CSS.",1,Documentación del proyecto,2016-04-11,2016-05-20,iam47591775,Andres Jordan Zambrano,,,Closed,False,True,1,7,0,,,[],0
24,Diseño gráfico de la aplicación,,23,Planificación del proyecto,2016-04-11,2016-04-15,iam47591775,Andres Jordan Zambrano,,,Closed,False,True,1,0,0,,,[],0
25,Analisis funcional y no funcional,A partir de la plantilla que nos proporciono nuestro tutor (Imatra Booking_ Análisis funcional.pdf). Entrega del documento en formato PDF.,23,Planificación del proyecto,2016-04-11,2016-04-15,iam47591775,Andres Jordan Zambrano,,,Closed,False,True,1,1,0,,,[],0
26,Creacion del proyecto en GitLab,,23,Planificación del proyecto,2016-04-11,2016-04-15,iam47591775,Andres Jordan Zambrano,,,Closed,False,True,1,2,0,,,[],0
27,Iconos SmartGarden - Esdras,"refresh, flecha blanca fondo verde
lightbulb outline
opacity
lock outline
lock open
menu, color blanco",31,Diseño aplicacion,2016-04-18,2016-04-22,iam47591775,Andres Jordan Zambrano,,,Closed,False,True,1,2,0,,,[],0
28,Iconos SmartGarden - Carlos,"add, color blanco
settings, color gris (por defecto) y verde
edit, color blanco
info, fondo azul letra blanca
delete, color blanco
cancel, color blanco",31,Diseño aplicacion,2016-04-18,2016-04-22,iam47591775,Andres Jordan Zambrano,,,Closed,False,True,1,0,0,,,[],0
29,Iconos SmartGarden - Andres,"equalizer->color blanco,
local florist->color verde,
sync->color blanco,
done->color blanco,
clear->colro blanco",31,Diseño aplicacion,2016-04-18,2016-04-22,iam47591775,Andres Jordan Zambrano,,,Closed,False,True,1,1,0,,,[],0
30,Crear ramas en GitLab,,23,Planificación del proyecto,2016-04-11,2016-04-15,iam47591775,Andres Jordan Zambrano,,,Closed,False,True,1,3,0,,,[],0
33,PantallaPrincipal,,32,Diseño aplicacion,2016-04-18,2016-04-22,iam47591775,Andres Jordan Zambrano,Esdras,Esdras Valiente,Closed,False,True,1,0,0,,,[],0
34,FragmentBienvenida,,32,Diseño aplicacion,2016-04-18,2016-04-22,iam47591775,Andres Jordan Zambrano,iam47591775,Andres Jordan Zambrano,Closed,False,True,1,1,0,,,[],0
35,FragmentBusquedaCultivos,,32,Diseño aplicacion,2016-04-18,2016-04-22,iam47591775,Andres Jordan Zambrano,iam47591775,Andres Jordan Zambrano,Closed,False,True,1,13,0,,,[],0
36,PantallaRegistroCultivo,,32,Diseño aplicacion,2016-04-18,2016-04-22,iam47591775,Andres Jordan Zambrano,cdapalc,Carlos Da Palma Corchado,Closed,False,True,1,12,0,,,[],0
37,PantallaGestionTiempos,,32,Diseño aplicacion,2016-04-18,2016-04-22,iam47591775,Andres Jordan Zambrano,Esdras,Esdras Valiente,Closed,False,True,1,14,0,,,[],0
38,PantallaAnadirTiempos,,32,Diseño aplicacion,2016-04-18,2016-04-22,iam47591775,Andres Jordan Zambrano,Esdras,Esdras Valiente,Closed,False,True,1,11,0,,,[],0
39,PantallaMenuLateral,,32,Diseño aplicacion,2016-04-18,2016-04-22,iam47591775,Andres Jordan Zambrano,iam47591775,Andres Jordan Zambrano,Closed,False,True,1,2,0,,,[],0
40,FragmentCultivosRegistrados,,32,Diseño aplicacion,2016-04-18,2016-04-22,iam47591775,Andres Jordan Zambrano,cdapalc,Carlos Da Palma Corchado,Closed,False,True,1,5,0,,,[],0
41,FragmentCultivo,,32,Diseño aplicacion,2016-04-18,2016-04-22,iam47591775,Andres Jordan Zambrano,Esdras,Esdras Valiente,Closed,False,True,1,0,0,,,[],0
42,FragmentEstadisticasCultivo,,32,Diseño aplicacion,2016-04-18,2016-04-22,iam47591775,Andres Jordan Zambrano,iam47591775,Andres Jordan Zambrano,Closed,False,True,1,1,0,,,[],0
43,FragmentTabHostEstadisticasCultivoElectricidad,,32,Diseño aplicacion,2016-04-18,2016-04-22,iam47591775,Andres Jordan Zambrano,cdapalc,Carlos Da Palma Corchado,Closed,False,True,1,9,0,,,[],0
44,FragmentTabHostEstadisticasCultivoHumedad,,32,Diseño aplicacion,2016-04-18,2016-04-22,iam47591775,Andres Jordan Zambrano,cdapalc,Carlos Da Palma Corchado,Closed,False,True,1,10,0,,,[],0
45,FragmentTabHostEstadisticasCultivoTemperatura,,32,Diseño aplicacion,2016-04-18,2016-04-22,iam47591775,Andres Jordan Zambrano,cdapalc,Carlos Da Palma Corchado,Closed,False,True,1,8,0,,,[],0
46,FragmentEstadisticasGlobales,,32,Diseño aplicacion,2016-04-18,2016-04-22,iam47591775,Andres Jordan Zambrano,Esdras,Esdras Valiente,Closed,False,True,1,15,0,,,[],0
47,FragmentTabHostEstadisticasGlobalesElectricidad,,32,Diseño aplicacion,2016-04-18,2016-04-22,iam47591775,Andres Jordan Zambrano,Esdras,Esdras Valiente,Closed,False,True,1,7,0,,,[],0
48,FragmentTabHostEstadisticasGlobalesHumedad,,32,Diseño aplicacion,2016-04-18,2016-04-22,iam47591775,Andres Jordan Zambrano,Esdras,Esdras Valiente,Closed,False,True,1,6,0,,,[],0
49,FragmentTabHostEstadisticasGlobalesTemperatura,,32,Diseño aplicacion,2016-04-18,2016-04-22,iam47591775,Andres Jordan Zambrano,Esdras,Esdras Valiente,Closed,False,True,1,3,0,,,[],0
50,FragmentAjustes,,32,Diseño aplicacion,2016-04-18,2016-04-22,iam47591775,Andres Jordan Zambrano,cdapalc,Carlos Da Palma Corchado,Closed,False,True,1,4,0,,,[],0
54,"Prototype, mockup, storyboard",,1,Documentación del proyecto,2016-04-11,2016-05-20,iam47591775,Andres Jordan Zambrano,cdapalc,Carlos Da Palma Corchado,Closed,False,True,1,11,0,,,[],0
56,Conexion a la raspberry pi,,55,Servidor SmartGrden,2016-05-10,2016-05-18,iam47591775,Andres Jordan Zambrano,,,Closed,False,True,1,5,0,,,[],0
57,Instalacion del sistema operativo en la Raspberry Pi,,55,Servidor SmartGrden,2016-05-10,2016-05-18,iam47591775,Andres Jordan Zambrano,,,Closed,False,True,1,1,0,,,[],0
58,Configuracion del servidor en la Raspberry Pi,,55,Servidor SmartGrden,2016-05-10,2016-05-18,iam47591775,Andres Jordan Zambrano,,,Closed,False,True,1,4,0,,,[],0
59,Creacion de base de datos y web en la Raspberry Pi,,55,Servidor SmartGrden,2016-05-10,2016-05-18,iam47591775,Andres Jordan Zambrano,,,Closed,False,True,1,3,0,,,[],0
60,Crear funciones Raspberry Pi,,55,Servidor SmartGrden,2016-05-10,2016-05-18,iam47591775,Andres Jordan Zambrano,,,Closed,False,True,1,2,0,,,[],0
61,Creacion del host,Para dejar la Raspberry Pi en un sitio fijo y no transportarla de un sitio a otro.,55,Servidor SmartGrden,2016-05-10,2016-05-18,iam47591775,Andres Jordan Zambrano,,,Closed,False,True,1,6,0,,,[],0
62,Añadir a las clases las funciones del servidor,,55,Servidor SmartGrden,2016-05-10,2016-05-18,iam47591775,Andres Jordan Zambrano,,,Closed,False,True,1,0,0,,,[],0
